syn/rtl/int_pe/int_pe-post.vcd
$date
	Tue Dec 17 19:56:21 2024
$end

$version
	Synopsys VCS version T-2022.06_Full64
$end

$timescale
	1ps
$end

$comment Csum: 1 8678b32037a15483 $end


$scope module int_pe_sim $end

$scope module u_int_pe $end
$var wire 1 ! clk $end
$var wire 1 " rst $end
$var wire 1 # fsm_out_select_in $end
$var wire 4 $ left_in [3:0] $end
$var wire 24 % top_in [23:0] $end
$var wire 4 & right_out [3:0] $end
$var wire 24 ' bottom_out [23:0] $end
$var wire 1 ( FE_PSN32_n209 $end
$var wire 1 ) FE_PSN31_n190 $end
$var wire 1 * FE_PSN30_n357 $end
$var wire 1 + FE_PSN29_n47 $end
$var wire 1 , FE_PSN28_accumulator_reg_3 $end
$var wire 1 - FE_PSN26_FE_RN_4 $end
$var wire 1 . FE_PSN24_top_in_reg_1 $end
$var wire 1 / FE_PSN23_FE_RN_1 $end
$var wire 1 0 FE_OCPN22_top_in_reg_0 $end
$var wire 1 1 FE_OCPN21_n300 $end
$var wire 1 2 FE_OCPN20_top_in_reg_2 $end
$var wire 1 3 FE_RN_91_0 $end
$var wire 1 4 FE_RN_90_0 $end
$var wire 1 5 FE_RN_89_0 $end
$var wire 1 6 FE_RN_88_0 $end
$var wire 1 7 FE_RN_87_0 $end
$var wire 1 8 FE_RN_11 $end
$var wire 1 9 FE_OCPN19_top_in_reg_3 $end
$var wire 1 : FE_RN_86_0 $end
$var wire 1 ; FE_RN_84_0 $end
$var wire 1 < FE_RN_83_0 $end
$var wire 1 = FE_RN_82_0 $end
$var wire 1 > FE_RN_10 $end
$var wire 1 ? FE_RN_81_0 $end
$var wire 1 @ FE_RN_9 $end
$var wire 1 A FE_RN_80_0 $end
$var wire 1 B FE_OCPN18_n204 $end
$var wire 1 C FE_RN_79_0 $end
$var wire 1 D FE_RN_8 $end
$var wire 1 E FE_OCPN17_n354 $end
$var wire 1 4 FE_RN_5 $end
$var wire 1 F FE_RN_78_0 $end
$var wire 1 G FE_RN_77_0 $end
$var wire 1 H FE_RN_76_0 $end
$var wire 1 I FE_RN_75_0 $end
$var wire 1 J FE_RN_74_0 $end
$var wire 1 K FE_RN_3 $end
$var wire 1 L FE_RN_73_0 $end
$var wire 1 M FE_RN_71_0 $end
$var wire 1 N FE_RN_68_0 $end
$var wire 1 O FE_RN_67_0 $end
$var wire 1 P FE_RN_65_0 $end
$var wire 1 Q FE_RN_64_0 $end
$var wire 1 ? FE_RN_63_0 $end
$var wire 1 R CTS_8 $end
$var wire 1 R CTS_7 $end
$var wire 1 R CTS_6 $end
$var wire 1 R CTS_10 $end
$var wire 1 R CTS_9 $end
$var wire 1 R CTS_3 $end
$var wire 1 R CTS_2 $end
$var wire 1 R CTS_1 $end
$var wire 1 R CTS_5 $end
$var wire 1 R CTS_4 $end
$var wire 1 S FE_RN_61_0 $end
$var wire 1 T FE_RN_60_0 $end
$var wire 1 U FE_RN_59_0 $end
$var wire 1 V FE_RN_56_0 $end
$var wire 1 W FE_RN_55_0 $end
$var wire 1 X FE_RN_54_0 $end
$var wire 1 Y FE_RN_53_0 $end
$var wire 1 Z FE_RN_51_0 $end
$var wire 1 [ FE_RN_50_0 $end
$var wire 1 \ FE_RN_49_0 $end
$var wire 1 ] FE_RN_48_0 $end
$var wire 1 ^ FE_RN_47_0 $end
$var wire 1 _ FE_RN_7 $end
$var wire 1 - FE_RN_4 $end
$var wire 1 ` FE_RN_45_0 $end
$var wire 1 a FE_RN_44_0 $end
$var wire 1 b FE_RN_43_0 $end
$var wire 1 c FE_RN_6 $end
$var wire 1 d FE_RN_40_0 $end
$var wire 1 e FE_RN_39_0 $end
$var wire 1 f FE_RN_2 $end
$var wire 1 g FE_RN_37_0 $end
$var wire 1 h FE_RN_35_0 $end
$var wire 1 i FE_RN_34_0 $end
$var wire 1 / FE_RN_1 $end
$var wire 1 A FE_RN_33_0 $end
$var wire 1 j FE_RN_31_0 $end
$var wire 1 k FE_RN_30_0 $end
$var wire 1 A FE_RN_29_0 $end
$var wire 1 l FE_RN_26_0 $end
$var wire 1 m FE_RN_25_0 $end
$var wire 1 n FE_RN_21_0 $end
$var wire 1 A FE_RN_18_0 $end
$var wire 1 o FE_RN_15_0 $end
$var wire 1 p FE_RN_14_0 $end
$var wire 1 q FE_RN_12_0 $end
$var wire 1 r FE_RN_11_0 $end
$var wire 1 s FE_RN_10_0 $end
$var wire 1 t FE_RN_9_0 $end
$var wire 1 u FE_RN_8_0 $end
$var wire 1 v FE_RN_5_0 $end
$var wire 1 w FE_RN_4_0 $end
$var wire 1 x FE_RN_3_0 $end
$var wire 1 y FE_RN_0_0 $end
$var wire 1 z N2 $end
$var wire 1 { N3 $end
$var wire 1 | N4 $end
$var wire 1 } N5 $end
$var wire 1 ~ N6 $end
$var wire 1 "! N7 $end
$var wire 1 "" N8 $end
$var wire 1 "# N9 $end
$var wire 1 "$ N10 $end
$var wire 1 "% N11 $end
$var wire 1 "& N12 $end
$var wire 1 "' N13 $end
$var wire 1 "( N14 $end
$var wire 1 ") N15 $end
$var wire 1 "* N16 $end
$var wire 1 "+ N17 $end
$var wire 1 ", N18 $end
$var wire 1 "- N19 $end
$var wire 1 ". N20 $end
$var wire 1 "/ N21 $end
$var wire 1 "0 N22 $end
$var wire 1 "1 N23 $end
$var wire 1 "2 N24 $end
$var wire 1 "3 N25 $end
$var wire 1 "4 n31 $end
$var wire 1 "5 n35 $end
$var wire 1 + n47 $end
$var wire 1 "6 n48 $end
$var wire 1 "7 n49 $end
$var wire 1 "8 n50 $end
$var wire 1 "9 n51 $end
$var wire 1 ": n52 $end
$var wire 1 "; n53 $end
$var wire 1 "< n54 $end
$var wire 1 "= n55 $end
$var wire 1 "> n57 $end
$var wire 1 "? n58 $end
$var wire 1 "@ n59 $end
$var wire 1 "A n60 $end
$var wire 1 6 n62 $end
$var wire 1 "B n63 $end
$var wire 1 "C n65 $end
$var wire 1 "D n66 $end
$var wire 1 "E n67 $end
$var wire 1 "F n68 $end
$var wire 1 "G n70 $end
$var wire 1 "H n72 $end
$var wire 1 "I n73 $end
$var wire 1 "J n74 $end
$var wire 1 "K n78 $end
$var wire 1 "L n81 $end
$var wire 1 "M n83 $end
$var wire 1 "N n84 $end
$var wire 1 "O n85 $end
$var wire 1 "P n88 $end
$var wire 1 "Q n90 $end
$var wire 1 "R n91 $end
$var wire 1 "S n95 $end
$var wire 1 "T n96 $end
$var wire 1 "U n97 $end
$var wire 1 "V n103 $end
$var wire 1 "W n104 $end
$var wire 1 "X n105 $end
$var wire 1 "Y n106 $end
$var wire 1 "Z n107 $end
$var wire 1 "[ n108 $end
$var wire 1 "\ n109 $end
$var wire 1 "] n111 $end
$var wire 1 "^ n112 $end
$var wire 1 "_ n113 $end
$var wire 1 "` n114 $end
$var wire 1 "a n115 $end
$var wire 1 "b n116 $end
$var wire 1 "c n122 $end
$var wire 1 "d n123 $end
$var wire 1 "e n125 $end
$var wire 1 "f n126 $end
$var wire 1 "g n127 $end
$var wire 1 "h n128 $end
$var wire 1 "i n129 $end
$var wire 1 "j n132 $end
$var wire 1 "k n133 $end
$var wire 1 "l n134 $end
$var wire 1 "m n135 $end
$var wire 1 "n n136 $end
$var wire 1 "o n161 $end
$var wire 1 "p n162 $end
$var wire 1 "q n163 $end
$var wire 1 "r n164 $end
$var wire 1 "s n165 $end
$var wire 1 "t n166 $end
$var wire 1 "u n167 $end
$var wire 1 "v n168 $end
$var wire 1 "w n169 $end
$var wire 1 "x n170 $end
$var wire 1 "y n171 $end
$var wire 1 "z n172 $end
$var wire 1 "{ n173 $end
$var wire 1 "| n174 $end
$var wire 1 "} n175 $end
$var wire 1 "~ n177 $end
$var wire 1 #! n178 $end
$var wire 1 #" n180 $end
$var wire 1 ## n181 $end
$var wire 1 #$ n182 $end
$var wire 1 #% n183 $end
$var wire 1 #& n184 $end
$var wire 1 #' n185 $end
$var wire 1 #( n186 $end
$var wire 1 #) n187 $end
$var wire 1 #* n188 $end
$var wire 1 #+ n190 $end
$var wire 1 > n191 $end
$var wire 1 #, n192 $end
$var wire 1 #- n193 $end
$var wire 1 #. n194 $end
$var wire 1 #/ n196 $end
$var wire 1 #0 n197 $end
$var wire 1 #1 n198 $end
$var wire 1 #2 n199 $end
$var wire 1 #3 n200 $end
$var wire 1 #4 n201 $end
$var wire 1 #5 n202 $end
$var wire 1 #6 n203 $end
$var wire 1 B n204 $end
$var wire 1 #7 n205 $end
$var wire 1 #8 n206 $end
$var wire 1 #9 n207 $end
$var wire 1 #: n208 $end
$var wire 1 ( n209 $end
$var wire 1 D n210 $end
$var wire 1 #; n211 $end
$var wire 1 #< n212 $end
$var wire 1 #= n213 $end
$var wire 1 #> n214 $end
$var wire 1 #? n215 $end
$var wire 1 #@ n216 $end
$var wire 1 #A n217 $end
$var wire 1 #B n218 $end
$var wire 1 #C n219 $end
$var wire 1 #D n220 $end
$var wire 1 #E n221 $end
$var wire 1 #F n222 $end
$var wire 1 #G n223 $end
$var wire 1 #H n224 $end
$var wire 1 #I n225 $end
$var wire 1 c n226 $end
$var wire 1 #J n227 $end
$var wire 1 #K n228 $end
$var wire 1 #L n229 $end
$var wire 1 #M n230 $end
$var wire 1 #N n231 $end
$var wire 1 #O n232 $end
$var wire 1 #P n233 $end
$var wire 1 #Q n234 $end
$var wire 1 #R n235 $end
$var wire 1 #S n236 $end
$var wire 1 #T n237 $end
$var wire 1 #U n238 $end
$var wire 1 #V n239 $end
$var wire 1 #W n240 $end
$var wire 1 #X n241 $end
$var wire 1 #Y n242 $end
$var wire 1 #Z n243 $end
$var wire 1 #[ n244 $end
$var wire 1 #\ n245 $end
$var wire 1 #] n246 $end
$var wire 1 #^ n247 $end
$var wire 1 #_ n248 $end
$var wire 1 #` n249 $end
$var wire 1 #a n250 $end
$var wire 1 #b n251 $end
$var wire 1 A n252 $end
$var wire 1 #c n253 $end
$var wire 1 #d n254 $end
$var wire 1 #e n255 $end
$var wire 1 #f n256 $end
$var wire 1 #g n257 $end
$var wire 1 #h n258 $end
$var wire 1 #i n259 $end
$var wire 1 #j n260 $end
$var wire 1 #k n261 $end
$var wire 1 #l n262 $end
$var wire 1 #m n263 $end
$var wire 1 #n n264 $end
$var wire 1 @ n265 $end
$var wire 1 #o n266 $end
$var wire 1 #p n267 $end
$var wire 1 #q n268 $end
$var wire 1 #r n269 $end
$var wire 1 #s n270 $end
$var wire 1 #t n271 $end
$var wire 1 #u n272 $end
$var wire 1 #v n273 $end
$var wire 1 #w n274 $end
$var wire 1 #x n275 $end
$var wire 1 #y n276 $end
$var wire 1 #z n277 $end
$var wire 1 Q n278 $end
$var wire 1 #{ n279 $end
$var wire 1 #| n280 $end
$var wire 1 #} n281 $end
$var wire 1 #~ n282 $end
$var wire 1 $! n284 $end
$var wire 1 $" n285 $end
$var wire 1 $# n286 $end
$var wire 1 v n287 $end
$var wire 1 $$ n288 $end
$var wire 1 $% n289 $end
$var wire 1 $& n290 $end
$var wire 1 $' n291 $end
$var wire 1 $( n293 $end
$var wire 1 $) n294 $end
$var wire 1 $* n295 $end
$var wire 1 $+ n296 $end
$var wire 1 $, n297 $end
$var wire 1 $- n298 $end
$var wire 1 $. n299 $end
$var wire 1 1 n300 $end
$var wire 1 $/ n301 $end
$var wire 1 $0 n302 $end
$var wire 1 $1 n303 $end
$var wire 1 $2 n304 $end
$var wire 1 $3 n305 $end
$var wire 1 $4 n306 $end
$var wire 1 $5 n307 $end
$var wire 1 $6 n308 $end
$var wire 1 $7 n309 $end
$var wire 1 $8 n310 $end
$var wire 1 $9 n311 $end
$var wire 1 $: n313 $end
$var wire 1 $; n314 $end
$var wire 1 $< n315 $end
$var wire 1 $= n316 $end
$var wire 1 $> n317 $end
$var wire 1 $? n318 $end
$var wire 1 $@ n319 $end
$var wire 1 $A n320 $end
$var wire 1 $B n321 $end
$var wire 1 $C n322 $end
$var wire 1 $D n323 $end
$var wire 1 $E n324 $end
$var wire 1 $F n325 $end
$var wire 1 $G n326 $end
$var wire 1 $H n327 $end
$var wire 1 $I n328 $end
$var wire 1 $J n329 $end
$var wire 1 $K n330 $end
$var wire 1 $L n331 $end
$var wire 1 $M n332 $end
$var wire 1 $N n333 $end
$var wire 1 $O n335 $end
$var wire 1 $P n336 $end
$var wire 1 $Q n337 $end
$var wire 1 $R n338 $end
$var wire 1 $S n339 $end
$var wire 1 r n340 $end
$var wire 1 i n341 $end
$var wire 1 $T n342 $end
$var wire 1 $U n343 $end
$var wire 1 $V n344 $end
$var wire 1 $W n345 $end
$var wire 1 $X n346 $end
$var wire 1 $Y n347 $end
$var wire 1 $Z n348 $end
$var wire 1 $[ n349 $end
$var wire 1 $\ n350 $end
$var wire 1 $] n351 $end
$var wire 1 $^ n352 $end
$var wire 1 $_ n353 $end
$var wire 1 E n354 $end
$var wire 1 $` n355 $end
$var wire 1 $a n356 $end
$var wire 1 * n357 $end
$var wire 1 $b n358 $end
$var wire 1 ^ n359 $end
$var wire 1 $c n360 $end
$var wire 1 $d n361 $end
$var wire 1 $e n362 $end
$var wire 1 $f n363 $end
$var wire 1 $g n364 $end
$var wire 1 $h n365 $end
$var wire 1 $i n366 $end
$var wire 1 $j n367 $end
$var wire 1 $k n368 $end
$var wire 1 $l n369 $end
$var wire 1 $m n370 $end
$var wire 1 8 n371 $end
$var wire 1 $n n372 $end
$var wire 1 $o n373 $end
$var wire 1 $p n374 $end
$var wire 1 $q n375 $end
$var wire 1 $r n376 $end
$var wire 1 $s n377 $end
$var wire 1 $t n379 $end
$var wire 1 $u n380 $end
$var wire 1 $v n381 $end
$var wire 1 $w n382 $end
$var wire 1 $x n383 $end
$var wire 1 $y n386 $end
$var wire 1 $z n387 $end
$var wire 1 ${ n388 $end
$var wire 1 $| n389 $end
$var wire 1 $} n390 $end
$var wire 1 $~ n392 $end
$var wire 1 %! n393 $end
$var wire 1 %" n394 $end
$var wire 1 %# n395 $end
$var wire 1 %$ n396 $end
$var wire 1 %% n397 $end
$var wire 1 %& n398 $end
$var wire 1 %' n399 $end
$var wire 1 %( n400 $end
$var wire 1 %) n401 $end
$var wire 1 %* n402 $end
$var wire 1 %+ n403 $end
$var wire 1 %, n404 $end
$var wire 24 %- accumulator_reg [23:0] $end
$var wire 4 %. top_in_reg [3:0] $end
$upscope $end

$upscope $end

$enddefinitions $end

#0
$dumpvars
0!
0"
1#
bxxxx &
b00000000000000000000xxxx '
xy
x6
x4
x@
x8
1?
xc
0A
xD
x#)
x#(
0R
x\
xe
x$%
xQ
x"z
bxxxx $
bxxxxxxxxxxxxxxxxxxxxxxxx %
bxxxxxxxxxxxxxxxxxxxxxxxx %-
bxxxx %.
x(
x#+
x)
x*
x+
x-
x/
x#K
x#J
x3
x#t
x$=
x#7
xB
x5
x$|
x$}
x$m
x#i
x;
x#f
x:
x#n
x7
x#p
xN
x`
x[
xZ
x#h
x=
x$#
x<
x"b
x"D
x$$
x>
x$R
x$S
x"U
x#Z
x#w
x#x
x$I
x$H
x$J
x$,
x$-
x#{
x$D
xC
xG
x"`
xg
xf
x$'
xx
xF
xk
xp
xq
x#z
xP
x$E
xI
xH
xW
xX
x$Q
xJ
x#2
x"V
xK
x_
x%#
x%*
xL
x#*
x"F
x#3
xM
x#'
x"\
x$5
xO
xj
x"<
x"X
x$:
x$;
x#:
x$n
xS
x#-
xT
x#4
x#8
x#9
x$s
xU
xV
x"5
x#k
x#j
x#l
x#b
x#a
x#c
x"x
x"|
xh
xd
x$9
x#G
x#H
x$b
x$!
x"a
x]
x$2
x$1
x$3
x"n
xa
xb
x#0
x#<
x#;
x$h
x"^
x$M
x$L
xn
x"E
x$N
x$K
x"W
x$6
x$4
xm
xl
x$x
x$.
x#R
x"j
x$B
x$C
x$[
x$Y
xs
x$X
xu
x$U
xt
x"I
x#e
xw
x"Y
1"4
x#,
x#5
x"t
x#_
x#!
x#$
x"k
x#Q
x"l
x#Y
x#/
x#A
x#B
x$<
x#S
x$/
x#F
x#T
x#[
x$(
x$*
x%%
x"6
x$~
x$y
x$u
x"B
x$o
x$i
x"C
x^
x$d
x"J
x%)
x#u
x#@
xr
x$T
xv
x"S
x%$
x"}
x%(
x$^
x"w
x#L
x"]
x$_
x"A
x$+
x"9
x$>
x$@
x">
x$F
x";
x#q
x"8
x#|
x"?
x"@
x$Z
x":
x"7
x#M
x"=
x$7
x#v
x#C
x$?
x$0
x#U
x$8
x#\
x$G
x$c
x#>
x#=
x$"
x#`
xi
x$)
x"G
x"H
x"K
x"L
x"M
x"N
x"O
x"P
x"Q
x"R
x#.
x"T
x#o
x"v
x"Z
x"y
x#6
x"[
x"_
x"c
x"d
x"e
x"f
x"g
x"h
x"i
x#^
x#E
x#W
x"m
x"o
x"p
x"q
x"r
x"s
x"{
x"u
x##
x"~
x#"
x#%
x#&
x#1
x$&
x#D
x#I
x#N
x#O
x#P
x#V
x#X
x#]
x#d
x#m
x#r
x#s
x#y
x#}
x#~
x$A
x$O
x$P
x$V
x$W
x$\
x$]
x$`
x$a
x$j
x$e
x$f
x$g
x$k
x$l
x$p
x$q
x$r
x$v
x$w
x$z
x${
x%!
x%"
x%&
x%'
x%+
x%,
x$t
x"3
x1
x"2
x"+
xE
xY
x"-
x")
x"'
xo
x9
x2
x.
x0
x,
x#?
x"(
x"%
x#g
x"/
x".
x"*
x"&
x",
x"1
x"0
x"$
x"#
x""
x"!
x~
x}
x|
x{
xz
$end
#1250
1!
1R
b100010010101111010000001 %
b0100 $
#2500
0!
0R
#3750
1!
1R
b111100000101011001100011 %
09
1"x
1"|
1"t
1#!
1"v
0"Z
02
1"}
1#*
0"F
0#3
1b
1"w
0"\
1"s
0"n
0.
1#)
1J
1#6
0"[
1"{
1S
0#4
10
0#,
1"y
1"~
0#(
0#5
1"m
1#+
1)
1#.
0"S
0%$
1+
1>
1%(
0"J
0%*
1"G
1L
0-
b0001 %.
1"p
1"u
1"o
0"z
0#7
1m
16
1"r
0"q
0#1
1#&
1#/
1$|
1#"
0#%
0#9
1"`
b0100 &
b1001 $
b000000000000000000000001 '
#5000
1"
0"4
0!
0R
00
1#,
1#5
0"m
1#(
1$O
1$*
1$M
1d
0W
1$P
1$)
1r
0"I
0$L
1"A
1$+
0"N
1$(
1$X
0t
0o
1s
1u
0i
1"E
1$T
0"Q
0Y
1h
1X
1#`
1v
0"b
0$Y
1"@
1$Z
0"O
0p
1#_
1#h
0<
1;
1=
0$"
1"D
1#a
1#\
1$F
0#i
1"?
1#j
1#[
1$D
1C
1#^
0"j
0n
1e
0$G
1">
1$H
1#U
1$7
0#{
1I
1#|
0"M
1#T
1$5
0O
1#W
0"l
0$8
1"=
1$9
1#S
1$/
0#p
1"<
1#q
0"L
1#F
1$.
1#o
0"W
0j
0#Y
1"T
0$0
1";
1$1
1#C
1$>
0#R
1":
1#G
1#B
1$<
1#E
0"k
0$?
1"9
1$@
0"P
1#A
1#K
0#v
1"8
1#w
1#@
1#J
0"H
03
1#u
0"V
0#Q
1"U
1Q
0"X
0#e
1w
0"Y
0#L
1"7
1#M
0"K
1#>
1^
0"a
0$^
1"]
1$_
0"R
0M
1#'
0#$
0,
1\
0#2
1a
1T
0#-
0%#
0%%
1"d
0%&
0%)
0%+
b0000 %.
0#/
0$}
1"6
1$~
0"c
1%!
x$|
x$~
x"c
x%!
1"q
1#]
1#V
1#n
1#D
1y
0$%
1#t
0##
0#0
0$|
0$~
1"c
0%!
0{
1%'
0z
1%,
1N
1#<
1$b
0$!
1]
0x
0#=
0$c
1"C
1$d
0"i
0B
1l
0$x
0$y
1"f
15
0|
1%"
14
0$z
0#X
0#Z
0#8
0$s
1"_
0_
0$u
1"e
1U
0"5
1(
0[
18
0g
0V
1#:
0Z
1$n
0"B
0$o
1"h
0f
0#;
0$h
1"^
1$i
0"g
1$t
0$m
0$v
0}
1${
1#z
1H
0$p
0$q
1D
1#?
0$&
0~
1$w
1#g
0#f
0"!
1$r
0*
1$j
0$k
0/
1:
1$#
0$e
0$f
0""
1$l
0E
1c
0P
0$`
0$$
0"#
1$g
11
0@
0#H
1$E
0#}
1G
0$I
0$J
1$=
0#x
1K
1#N
1#b
0#c
1#k
0#l
0"$
1$a
1$'
1k
17
0"(
1#I
0",
1#~
0"-
1$K
0"&
1#y
0#O
0"/
1#d
0".
1#m
1F
1$[
0$\
0`
0$:
1$6
0#r
0$2
0$3
0$A
0$B
0"%
1#P
0q
1$N
0$,
0$U
0$V
0"0
1$]
0"+
1$;
0"*
1#s
0")
1$4
0"'
1$C
1$Q
0$R
0"2
1$-
0"1
1$W
0"3
1$S
b0000 &
b000000000000000000000000 %-
b000000000000000000000000 '
#6250
1!
1R
b110111111001100110001101 %
b1101 $
#7500
0!
0R
#8750
1!
1R
b001101110101001000010010 %
b0101 $
#10000
0"
1"4
0!
0R
$dumpon
0!
0"
1#
b0000 &
b000000000000000000000000 '
1y
16
14
0@
18
1?
1c
0A
1D
1#)
1#(
0R
1\
1e
0$%
1Q
0"z
b0101 $
b001101110101001000010010 %
b000000000000000000000000 %-
b0000 %.
1(
1#+
1)
0*
1+
0-
0/
1#K
1#J
03
1#t
1$=
0#7
0B
15
0$|
0$}
0$m
0#i
1;
0#f
1:
1#n
17
0#p
1N
0`
0[
0Z
1#h
1=
1$#
0<
0"b
1"D
0$$
1>
0$R
1$S
1"U
0#Z
1#w
0#x
0$I
1$H
0$J
0$,
1$-
0#{
1$D
1C
1G
1"`
0g
0f
1$'
0x
1F
1k
0p
0q
1#z
0P
1$E
1I
1H
0W
1X
1$Q
1J
0#2
0"V
1K
0_
0%#
0%*
1L
1#*
0"F
0#3
0M
1#'
0"\
1$5
0O
0j
1"<
0"X
0$:
1$;
1#:
1$n
1S
0#-
1T
0#4
0#8
0#9
0$s
1U
0V
0"5
1#k
1#j
0#l
1#b
1#a
0#c
1"x
1"|
1h
1d
1$9
1#G
0#H
1$b
0$!
0"a
1]
0$2
1$1
0$3
0"n
1a
1b
0#0
1#<
0#;
0$h
1"^
1$M
0$L
0n
1"E
1$N
1$K
0"W
1$6
1$4
1m
1l
0$x
1$.
0#R
0"j
0$B
1$C
1$[
0$Y
1s
1$X
1u
0$U
0t
0"I
0#e
1w
0"Y
1"4
1#,
1#5
1"t
1#_
1#!
0#$
0"k
0#Q
0"l
0#Y
0#/
1#A
1#B
1$<
1#S
1$/
1#F
1#T
1#[
1$(
1$*
0%%
1"6
0$~
0$y
0$u
0"B
0$o
1$i
1"C
1^
1$d
0"J
0%)
1#u
1#@
1r
1$T
1v
0"S
0%$
1"}
1%(
0$^
1"w
0#L
1"]
1$_
1"A
1$+
1"9
1$>
1$@
1">
1$F
1";
1#q
1"8
1#|
1"?
1"@
1$Z
1":
1"7
1#M
1"=
1$7
0#v
1#C
0$?
0$0
1#U
0$8
1#\
0$G
0$c
1#>
0#=
0$"
1#`
0i
1$)
1"G
0"H
0"K
0"L
0"M
0"N
0"O
0"P
0"Q
0"R
1#.
1"T
1#o
1"v
0"Z
1"y
1#6
0"[
1"_
1"c
1"d
1"e
1"f
0"g
1"h
0"i
1#^
1#E
1#W
0"m
1"o
1"p
1"q
1"r
1"s
1"{
1"u
0##
1"~
1#"
0#%
1#&
0#1
0$&
1#D
1#I
1#N
0#O
1#P
1#V
0#X
1#]
1#d
1#m
0#r
1#s
1#y
0#}
1#~
0$A
1$O
1$P
0$V
1$W
0$\
1$]
0$`
1$a
1$j
0$e
0$f
1$g
0$k
1$l
0$p
0$q
1$r
0$v
1$w
0$z
1${
0%!
1%"
0%&
1%'
0%+
1%,
1$t
0"3
11
0"2
0"+
0E
0Y
0"-
0")
0"'
0o
09
02
0.
00
0,
1#?
0"(
0"%
1#g
0"/
0".
0"*
0"&
0",
0"1
0"0
0"$
0"#
0""
0"!
0~
0}
0|
0{
0z
$end
#11250
1!
1R
b110101111100110100001101 %
1.
0#)
0#(
0J
1#2
0>
0S
1#-
1%#
1%%
0"d
1%&
b0010 %.
0"r
1{
0%'
1B
0l
1$x
1$y
0"f
1$z
05
1}
0${
b0101 &
b0001 $
b000000000000000000000010 '
#12500
0!
0R
#13750
1!
1R
b100011011100110100111101 %
19
0"x
0"t
0#!
12
0"}
0#*
1"F
0b
0"w
1"\
1M
0#'
1#$
0.
1#)
1J
0#2
1S
0#-
0%#
0%%
1"d
0%&
10
0#,
0#5
1"m
0%(
1"J
1%)
1%+
1#(
1#5
0"m
1"t
1"w
0"\
0M
1#'
0#$
1,
0\
1#2
0T
1#-
1%#
1%%
0"d
1%&
b1101 %.
1#1
0#&
0"p
1#0
1$|
1$~
0"c
1%!
0"o
1{
0%'
1"r
1z
0%,
0"q
0B
1l
0$x
0$y
1"f
0$z
15
1#9
1$s
0"_
1_
1$u
0"e
1$v
0U
1"5
1|
0%"
1#8
0"`
0$u
1"e
0$v
0(
1[
1f
0$n
1"B
1$o
0"h
1$q
0}
1${
0~
1$w
1$p
0$q
0"!
1$r
b0001 &
b000000000000000000001010 %-
b0110 $
b000000000000000000001101 '
#15000
0!
0R
#16250
1!
1R
b001011011111011110001100 %
0#(
0#5
1"m
0"t
0"w
1"\
1M
0#'
1#$
0#+
0)
0"|
0#.
1"S
1%$
0+
1-
0%!
0%%
1"d
0%&
1"n
1>
1#*
0"F
1b
1%(
0"J
0%)
0%+
1#!
0,
1\
0#2
0a
1%)
1%+
b0110 &
1#/
1$}
0"6
0$~
1"c
1%!
1##
0"u
0{
1%'
1#&
1z
0%,
1#%
0#"
04
1$z
1|
0%"
1B
0l
1$x
1$y
0"f
0$z
05
0#9
1"`
1$u
0"e
1$v
0#<
0$b
1$!
0]
1x
0$i
1"g
1$k
0#8
0$s
1"_
0_
0$u
1"e
0$v
1U
0"5
0#:
1Z
08
0$o
1"h
1$q
1V
1g
1#;
1$b
0$!
1]
0x
1$i
0"g
0$k
1(
0[
18
1$o
0"h
0$q
0g
0V
0}
1${
0$t
1$m
1$v
0D
1~
0$w
0$p
1$q
1"!
0$r
1*
0$j
1$k
1/
1E
0c
1P
1$`
1""
0$l
1$e
1$f
01
1@
1#H
0$E
1#}
0G
1$I
1$J
0$=
1#x
0K
0#N
0#b
1#c
0#k
1#l
1"$
0$a
1"#
0$g
0k
07
1"(
0#I
1",
0#~
1"-
0$K
1"&
0#y
1#O
1"/
0#d
1".
0#m
0$[
1$\
1`
1$:
0$6
1#r
1$2
1$3
1$A
1$B
1"%
0#P
1q
0$N
1$,
1$U
1$V
1"0
0$]
1"+
0$;
1"*
0#s
1")
0$4
1"'
0$C
0$Q
1$R
1"2
0$-
1"1
0$W
1"3
0$S
b000000000000000000000111 %-
b1101 $
#17500
0!
0R
